{
  consul: "127.0.0.1:8500",
  jobs: [
    {
      name: "preStart",
      exec: ["/etc/epicsoft/consul-manage", "preStart"],
    },
    {
      name: "consul",
      port: 8500,
      {{ if .CONSUL_DEV }}exec: [
        "/bin/consul", "agent",
        "-dev",
        "-config-dir={{.CONSUL_CONFIG_DIR}}"],
      {{ else }}exec: [
        "/bin/consul", "agent",
        "-server",
        "-bootstrap-expect", "{{.CONSUL_BOOTSTRAP_EXPECT}}",
        "-config-dir={{.CONSUL_CONFIG_DIR}}",
        "-ui"],{{ end }}
      when: {
        source: "preStart",
        once: "exitSuccess"
      },
      health:{
        exec: ["/etc/epicsoft/consul-manage", "health"],
        interval: 10,
        ttl: 25
      }
    },
    {
      name: "preStop",
      exec: ["consul", "leave"],
      when: {
        source: "consul",
        once: "stopping"
      }
    }
  ]
}
